08:07:49 03-12-2014;192.168.12.137;Mozilla/5.0 (Linux; Android 5.0; Nexus 5 Build/LRX21O) AppleWebKit/537.36 (KHTML, like Gecko) Version/4.0 Chrome/37.0.0.0 Mobile Safari/537.36;nl-NL,en-US;q=0.8;0;0
09:02:27 03-12-2014;192.168.12.135;Mozilla/5.0 (iPhone; CPU iPhone OS 7_1_2 like Mac OS X) AppleWebKit/537.51.2 (KHTML, like Gecko) Mobile/11D257;nl-nl;0;0
09:23:20 03-12-2014;192.168.13.137;Mozilla/5.0 (Linux; Android 5.0; Nexus 5 Build/LRX21O) AppleWebKit/537.36 (KHTML, like Gecko) Version/4.0 Chrome/37.0.0.0 Mobile Safari/537.36;nl-NL,en-US;q=0.8;0;0
